bcc_sale,isdn,sub_id,infra_type,change_type,sub_type,province,account_id,status,pay_type,mon
1,1,1,1,ds,fghf,DN,afa,1,tt,20200312
2,2,3,2,gs,asd,HN,asf,1,ts,20200312
3,3,3,3,ds,hkh,HCM,a,0,tt,20200412
4,4,2,34,ds,dsa,HN,fdds,2,ts,20200312
5,5,2,1,kjh,k,TN,sa,3,tt,20200318
6,6,4,2,ds,dsa,HCM,fsfs,1,ts,20200312
7,7,5,4,kh,dsa,DN,fsa,1,tt,20200312
8,8,3,1,sda,sda,TN,saf,1,tt,20200331
9,9,1,4,k,k,TN,a,0,tt,20200330
10,10,1,3,ds,dsa,HN,afsaf,2,ts,20200312
11,11,1,2,hg,jhk,DN,sa,3,tt,20200312
12,12,5,5,ds,dsa,DN,a,1,tt,20200312
13,5,2,1,kjh,k,TN,sa,3,tt,20200320
14,6,4,2,ds,dsa,HCM,fsfs,1,ts,20200312
15,7,5,4,kh,dsa,DN,fsa,1,tt,20200311
16,8,3,1,sda,sda,TN,saf,1,tt,20200319
17,9,1,4,k,k,TN,a,0,tt,20200412
18,10,1,3,ds,dsa,HN,afsaf,2,ts,20200315
19,11,1,2,hg,jhk,DN,sa,3,tt,20200312
20,12,5,5,ds,dsa,DN,a,1,ts,20200315
21,10,1,3,ds,dsa,HN,afsaf,2,ts,20200315
22,11,1,2,hg,jhk,DN,sa,3,tt,20200312
23,12,5,5,ds,dsa,DN,a,1,ts,20200315
